www.eff.org:HSTS	0	17797	1569265660512,1,1,2
www.torproject.org:HSTS	0	17797	1553497146587,1,0,2
versioncheck-bg.addons.mozilla.org:HSTS	0	17797	1537729956076,1,0,2
versioncheck-bg.addons.mozilla.org:HPKP	0	17797	1542913656077,1,1,WoiWRyIOVNa9ihaBciRSC7XHjliYS9VwUGOIud4PB18=r/mIkG3eEpVdm+u/ko/cwxzOMo1bk4TyHIlByibiA5E=
aus1.torproject.org:HSTS	0	17797	1553502200987,1,0,2
aus1.torproject.org:HPKP	0	17797	1542918200989,1,0,wGJQ6N5utvhfITD/g4M3HUPwutGqLy4PfjCeE8rp68s=x0MgaI9OqdZw826vW+IQaZP3AbvEs6OqOfysZGrHGUI=
eff.org:HSTS	0	17797	1569265658511,1,1,2
